%YAML 1.1
%TAG !u! tag:unity3d.com,2011:
--- !u!78 &1
TagManager:
  serializedVersion: 2
  tags:
  - Food
  - Pizza
  - Candy
  - Chocolate
  - GameManager
  - Enemy
  - Background
  - Health
  - Score
  - Bomb
  - SM
  layers:
  - Default
  - TransparentFX
  - Ignore Raycast
  - 
  - Water
  - UI
  - 
  - 
  - BlockingLayer
  - 
  - 
  - 
  - 
  - 
  - 
  - 
  - 
  - 
  - 
  - 
  - 
  - 
  - 
  - 
  - 
  - 
  - 
  - 
  - 
  - 
  - 
  - 
  m_SortingLayers:
  - name: Default
    uniqueID: 0
    locked: 0
  - name: Units
    uniqueID: 2810407059
    locked: 0
  - name: Items
    uniqueID: 2038088945
    locked: 0
  - name: Pause
    uniqueID: 2540095483
    locked: 0
  - name: UI
    uniqueID: 986929707
    locked: 0
  - name: Floor
    uniqueID: 240411603
    locked: 0
